<svg width="25" height="25" viewBox="0 0 25 25" fill="none" xmlns="http://www.w3.org/2000/svg">
<path d="M4.6875 4.6875C3.8587 4.6875 3.06384 5.01674 2.47779 5.60279C1.89174 6.18884 1.5625 6.9837 1.5625 7.8125V9.375H23.4375V7.8125C23.4375 6.9837 23.1083 6.18884 22.5222 5.60279C21.9362 5.01674 21.1413 4.6875 20.3125 4.6875H4.6875Z" fill="#939393"/>
<path d="M1.5625 17.1875V10.9375H23.4375V17.1875C23.4375 18.0163 23.1083 18.8112 22.5222 19.3972C21.9362 19.9833 21.1413 20.3125 20.3125 20.3125H4.6875C3.8587 20.3125 3.06384 19.9833 2.47779 19.3972C1.89174 18.8112 1.5625 18.0163 1.5625 17.1875ZM16.4062 15.625C16.199 15.625 16.0003 15.7073 15.8538 15.8538C15.7073 16.0003 15.625 16.199 15.625 16.4062C15.625 16.6135 15.7073 16.8122 15.8538 16.9587C16.0003 17.1052 16.199 17.1875 16.4062 17.1875H19.5312C19.7385 17.1875 19.9372 17.1052 20.0837 16.9587C20.2302 16.8122 20.3125 16.6135 20.3125 16.4062C20.3125 16.199 20.2302 16.0003 20.0837 15.8538C19.9372 15.7073 19.7385 15.625 19.5312 15.625H16.4062Z" fill="#FFFFFF"/>
</svg>
